[
{
    "pk": 1, 
    "model": "blogs.section", 
    "fields": {
        "name": "Food", 
        "slug": "food"
    }
},
{
    "pk": 2, 
    "model": "blogs.section", 
    "fields": {
        "name": "Travel", 
        "slug": "travel"
    }
},
{
    "pk": 3, 
    "model": "blogs.section", 
    "fields": {
        "name": "Others", 
        "slug": "others"
    }
},
{
    "pk": 4, 
    "model": "blogs.section", 
    "fields": {
        "name": "All", 
        "slug": "all"
    }
}
]
